{
  "name": "fxmaster",
  "title": "FXMaster",
  "description": "<p>Adds various weather and filter effects</p>",
  "version": "0.8.1",
  "author": "U~man",
  "scripts": [
    "libs/filters/pixi-filters.js",
    "greensock/dist/TweenMax.min.js"
  ],
  "esmodules": [
    "effects/BatsWeatherEffect.js",
    "effects/BubblesWeatherEffect.js",
    "effects/CloudsWeatherEffect.js",
    "effects/CrowsWeatherEffect.js",
    "effects/EmbersWeatherEffect.js",
    "effects/ExplosionEffect.js",
    "effects/FireballEffect.js",
    "effects/FogWeatherEffect.js",
    "effects/FXMasterLayer.js",
    "effects/LightningEffect.js",
    "effects/NatureEffect.js",
    "effects/RaintopWeatherEffect.js",
    "effects/SacredFlameEffect.js",
    "effects/StarsWeatherEffect.js",
    "module/controls.js",
    "module/config.js",
    "module/specials.js",
    "module/fxmaster.js",
    "filters/FXUnderwaterFilter.js",
    "filters/FXBloomFilter.js",
    "filters/FXOldFilmFilter.js",
    "filters/FXColorFilter.js",
    "filters/FXPredatorFilter.js",
    "filters/FilterManager.js"
  ],
  "styles": [
    "css/weatherconfig.css"
  ],
  "packs": [],
  "languages": [
    {
      "lang": "en",
      "name": "English",
      "path": "lang/en.json"
    },
    {
      "lang": "fr",
      "name": "French (FRANCE)",
      "path": "lang/fr.json"
    },
    {
      "lang": "cn",
      "name": "Chinese",
      "path": "lang/cn.json"
    },
    {
      "lang": "ko",
      "name": "Korean",
      "path": "lang/ko.json"
    }
  ],
  "socket": true,
  "url": "https://gitlab.com/mesfoliesludiques/foundryvtt-fxmaster",
  "manifest": "https://gitlab.com/mesfoliesludiques/foundryvtt-fxmaster/-/raw/master/module.json",
  "download": "https://gitlab.com/mesfoliesludiques/foundryvtt-fxmaster/-/archive/master/foundryvtt-fxmaster-master.zip",
  "compatibleCoreVersion": "0.6.0",
  "minimumCoreVersion": "0.5.7"
}